***************************************
Iris:	Logistic Regression
***************************************
Training fold #1
Training Accuracy (iter=0): 0.8333%
Training Accuracy (iter=25): 69.1667%
Training Accuracy (iter=50): 72.5000%
Training Accuracy (iter=75): 76.6667%
Training Accuracy (iter=100): 75.8333%

Output of test classifications for the first fold:
#1: Predicted class: 0 Actual Class: 0
#2: Predicted class: 1 Actual Class: 1
#3: Predicted class: 2 Actual Class: 2
#4: Predicted class: 0 Actual Class: 0
#5: Predicted class: 2 Actual Class: 2
#6: Predicted class: 0 Actual Class: 0
#7: Predicted class: 2 Actual Class: 2
#8: Predicted class: 0 Actual Class: 1
#9: Predicted class: 0 Actual Class: 1
#10: Predicted class: 0 Actual Class: 1
#11: Predicted class: 0 Actual Class: 0
#12: Predicted class: 0 Actual Class: 1
#13: Predicted class: 0 Actual Class: 1
#14: Predicted class: 0 Actual Class: 1
#15: Predicted class: 0 Actual Class: 1
#16: Predicted class: 2 Actual Class: 2
#17: Predicted class: 0 Actual Class: 1
#18: Predicted class: 1 Actual Class: 1
#19: Predicted class: 2 Actual Class: 2
#20: Predicted class: 2 Actual Class: 2
#21: Predicted class: 0 Actual Class: 0
#22: Predicted class: 0 Actual Class: 1
#23: Predicted class: 2 Actual Class: 2
#24: Predicted class: 2 Actual Class: 2
#25: Predicted class: 0 Actual Class: 0
#26: Predicted class: 2 Actual Class: 2
#27: Predicted class: 2 Actual Class: 2
#28: Predicted class: 0 Actual Class: 1
#29: Predicted class: 1 Actual Class: 1
#30: Predicted class: 2 Actual Class: 2
Test Classification Accuracy for First Fold: 66.67%
Training fold #2
Training Accuracy (iter=0): 39.1667%
Training Accuracy (iter=25): 85.0000%
Training Accuracy (iter=50): 85.0000%
Training fold #3
Training Accuracy (iter=0): 60.8333%
Training Accuracy (iter=25): 80.0000%
Training Accuracy (iter=50): 80.8333%
Training fold #4
Training Accuracy (iter=0): 40.8333%
Training Accuracy (iter=25): 84.1667%
Training Accuracy (iter=50): 83.3333%
Training fold #5
Training Accuracy (iter=0): 39.1667%
Training Accuracy (iter=25): 77.5000%
Training Accuracy (iter=50): 75.8333%
Training Accuracy (iter=75): 78.3333%
Training Accuracy (iter=100): 79.1667%

Model for Iris Logistic Regression:
[[ 4.20858818  4.28930224  4.91022492]
 [ 4.41892611  1.12472266 -3.96755152]
 [-0.51343899 -2.24188951  3.64715911]
 [ 4.29047498  1.60308808 -4.53083374]
 [ 5.35014762  1.30964316 -4.57755364]]

Average Test Classification Accuracy for Iris Logistic Regression: 81.33%

***************************************
Iris:	Adaline
***************************************
Training fold #1
Training Accuracy (iter=0): 0.8333%
Training Accuracy (iter=25): 81.6667%
Training Accuracy (iter=50): 84.1667%
Training Accuracy (iter=75): 85.0000%
Training Accuracy (iter=100): 85.0000%

Output of test classifications for the first fold:
#1: Predicted class: 0 Actual Class: 0
#2: Predicted class: 1 Actual Class: 1
#3: Predicted class: 2 Actual Class: 0
#4: Predicted class: 0 Actual Class: 2
#5: Predicted class: 2 Actual Class: 2
#6: Predicted class: 0 Actual Class: 0
#7: Predicted class: 1 Actual Class: 1
#8: Predicted class: 2 Actual Class: 2
#9: Predicted class: 2 Actual Class: 2
#10: Predicted class: 0 Actual Class: 0
#11: Predicted class: 2 Actual Class: 2
#12: Predicted class: 0 Actual Class: 2
#13: Predicted class: 0 Actual Class: 2
#14: Predicted class: 0 Actual Class: 0
#15: Predicted class: 2 Actual Class: 2
#16: Predicted class: 1 Actual Class: 1
#17: Predicted class: 0 Actual Class: 0
#18: Predicted class: 0 Actual Class: 2
#19: Predicted class: 2 Actual Class: 0
#20: Predicted class: 1 Actual Class: 1
#21: Predicted class: 1 Actual Class: 1
#22: Predicted class: 0 Actual Class: 0
#23: Predicted class: 0 Actual Class: 0
#24: Predicted class: 0 Actual Class: 0
#25: Predicted class: 0 Actual Class: 2
#26: Predicted class: 1 Actual Class: 1
#27: Predicted class: 1 Actual Class: 1
#28: Predicted class: 0 Actual Class: 0
#29: Predicted class: 0 Actual Class: 0
#30: Predicted class: 0 Actual Class: 0
Test Classification Accuracy for First Fold: 76.67%
Training fold #2
Training Accuracy (iter=0): 25.0000%
Training Accuracy (iter=25): 82.5000%
Training Accuracy (iter=50): 83.3333%
Training Accuracy (iter=75): 85.0000%
Training fold #3
Training Accuracy (iter=0): 34.1667%
Training Accuracy (iter=25): 83.3333%
Training Accuracy (iter=50): 82.5000%
Training fold #4
Training Accuracy (iter=0): 71.6667%
Training Accuracy (iter=25): 75.0000%
Training Accuracy (iter=50): 80.0000%
Training Accuracy (iter=75): 80.0000%
Training Accuracy (iter=100): 81.6667%
Training Accuracy (iter=125): 82.5000%
Training fold #5
Training Accuracy (iter=0): 2.5000%
Training Accuracy (iter=25): 75.8333%
Training Accuracy (iter=50): 78.3333%
Training Accuracy (iter=75): 81.6667%
Training Accuracy (iter=100): 83.3333%
Training Accuracy (iter=125): 82.5000%

Model for Iris Adaline:
[[ 1.27431708e+01  1.27971146e+01  1.28869344e+01]
 [ 1.06945076e+00 -6.15034161e-01  2.28961789e-01]
 [ 7.97783631e-02  1.13187343e+00 -1.96588986e+00]
 [ 1.59603747e+00 -1.70147203e+00  1.50429269e-01]
 [ 1.16564278e+00 -1.61168342e+00  3.60270953e-03]]

Average Test Classification Accuracy for Iris Adaline: 80.00%

***************************************
Breast Cancer:	Logistic Regression
***************************************
Training fold #1
Training Accuracy (iter=0): 29.3381%
Training Accuracy (iter=25): 86.2254%
Training Accuracy (iter=50): 93.7388%
Training Accuracy (iter=75): 95.3488%
Training Accuracy (iter=100): 96.0644%
Training Accuracy (iter=125): 96.2433%

Output of test classifications for the first fold:
#1: Predicted class: 0 Actual Class: 0
#2: Predicted class: 0 Actual Class: 0
#3: Predicted class: 0 Actual Class: 0
#4: Predicted class: 1 Actual Class: 1
#5: Predicted class: 1 Actual Class: 1
#6: Predicted class: 0 Actual Class: 0
#7: Predicted class: 1 Actual Class: 1
#8: Predicted class: 0 Actual Class: 0
#9: Predicted class: 0 Actual Class: 0
#10: Predicted class: 0 Actual Class: 0
#11: Predicted class: 1 Actual Class: 1
#12: Predicted class: 0 Actual Class: 0
#13: Predicted class: 1 Actual Class: 1
#14: Predicted class: 0 Actual Class: 0
#15: Predicted class: 1 Actual Class: 1
#16: Predicted class: 0 Actual Class: 0
#17: Predicted class: 0 Actual Class: 0
#18: Predicted class: 0 Actual Class: 0
#19: Predicted class: 0 Actual Class: 0
#20: Predicted class: 1 Actual Class: 1
#21: Predicted class: 0 Actual Class: 0
#22: Predicted class: 0 Actual Class: 0
#23: Predicted class: 1 Actual Class: 1
#24: Predicted class: 0 Actual Class: 0
#25: Predicted class: 0 Actual Class: 0
#26: Predicted class: 0 Actual Class: 0
#27: Predicted class: 1 Actual Class: 1
#28: Predicted class: 0 Actual Class: 0
#29: Predicted class: 0 Actual Class: 0
#30: Predicted class: 1 Actual Class: 1
#31: Predicted class: 1 Actual Class: 1
#32: Predicted class: 0 Actual Class: 0
#33: Predicted class: 0 Actual Class: 0
#34: Predicted class: 0 Actual Class: 0
#35: Predicted class: 1 Actual Class: 1
#36: Predicted class: 0 Actual Class: 0
#37: Predicted class: 1 Actual Class: 1
#38: Predicted class: 0 Actual Class: 0
#39: Predicted class: 0 Actual Class: 0
#40: Predicted class: 1 Actual Class: 1
#41: Predicted class: 0 Actual Class: 0
#42: Predicted class: 1 Actual Class: 1
#43: Predicted class: 0 Actual Class: 0
#44: Predicted class: 0 Actual Class: 0
#45: Predicted class: 0 Actual Class: 0
#46: Predicted class: 0 Actual Class: 0
#47: Predicted class: 0 Actual Class: 0
#48: Predicted class: 0 Actual Class: 0
#49: Predicted class: 1 Actual Class: 1
#50: Predicted class: 1 Actual Class: 1
#51: Predicted class: 0 Actual Class: 0
#52: Predicted class: 0 Actual Class: 0
#53: Predicted class: 0 Actual Class: 0
#54: Predicted class: 0 Actual Class: 0
#55: Predicted class: 1 Actual Class: 1
#56: Predicted class: 0 Actual Class: 0
#57: Predicted class: 1 Actual Class: 1
#58: Predicted class: 0 Actual Class: 0
#59: Predicted class: 0 Actual Class: 0
#60: Predicted class: 0 Actual Class: 0
#61: Predicted class: 0 Actual Class: 0
#62: Predicted class: 1 Actual Class: 1
#63: Predicted class: 0 Actual Class: 0
#64: Predicted class: 1 Actual Class: 1
#65: Predicted class: 1 Actual Class: 1
#66: Predicted class: 1 Actual Class: 1
#67: Predicted class: 0 Actual Class: 0
#68: Predicted class: 1 Actual Class: 1
#69: Predicted class: 1 Actual Class: 1
#70: Predicted class: 0 Actual Class: 0
#71: Predicted class: 0 Actual Class: 0
#72: Predicted class: 0 Actual Class: 0
#73: Predicted class: 0 Actual Class: 0
#74: Predicted class: 0 Actual Class: 0
#75: Predicted class: 0 Actual Class: 0
#76: Predicted class: 1 Actual Class: 1
#77: Predicted class: 0 Actual Class: 0
#78: Predicted class: 0 Actual Class: 0
#79: Predicted class: 0 Actual Class: 0
#80: Predicted class: 1 Actual Class: 1
#81: Predicted class: 0 Actual Class: 0
#82: Predicted class: 0 Actual Class: 0
#83: Predicted class: 0 Actual Class: 0
#84: Predicted class: 0 Actual Class: 0
#85: Predicted class: 1 Actual Class: 1
#86: Predicted class: 0 Actual Class: 0
#87: Predicted class: 0 Actual Class: 0
#88: Predicted class: 0 Actual Class: 0
#89: Predicted class: 0 Actual Class: 0
#90: Predicted class: 0 Actual Class: 0
#91: Predicted class: 1 Actual Class: 1
#92: Predicted class: 0 Actual Class: 0
#93: Predicted class: 0 Actual Class: 0
#94: Predicted class: 1 Actual Class: 1
#95: Predicted class: 0 Actual Class: 0
#96: Predicted class: 0 Actual Class: 0
#97: Predicted class: 1 Actual Class: 1
#98: Predicted class: 0 Actual Class: 0
#99: Predicted class: 0 Actual Class: 0
#100: Predicted class: 0 Actual Class: 0
#101: Predicted class: 1 Actual Class: 1
#102: Predicted class: 1 Actual Class: 1
#103: Predicted class: 0 Actual Class: 0
#104: Predicted class: 0 Actual Class: 0
#105: Predicted class: 1 Actual Class: 1
#106: Predicted class: 0 Actual Class: 0
#107: Predicted class: 0 Actual Class: 0
#108: Predicted class: 0 Actual Class: 0
#109: Predicted class: 1 Actual Class: 1
#110: Predicted class: 1 Actual Class: 1
#111: Predicted class: 1 Actual Class: 1
#112: Predicted class: 0 Actual Class: 0
#113: Predicted class: 0 Actual Class: 0
#114: Predicted class: 0 Actual Class: 0
#115: Predicted class: 1 Actual Class: 1
#116: Predicted class: 0 Actual Class: 0
#117: Predicted class: 1 Actual Class: 1
#118: Predicted class: 1 Actual Class: 1
#119: Predicted class: 0 Actual Class: 0
#120: Predicted class: 0 Actual Class: 0
#121: Predicted class: 1 Actual Class: 1
#122: Predicted class: 1 Actual Class: 1
#123: Predicted class: 0 Actual Class: 0
#124: Predicted class: 0 Actual Class: 1
#125: Predicted class: 0 Actual Class: 0
#126: Predicted class: 0 Actual Class: 0
#127: Predicted class: 0 Actual Class: 0
#128: Predicted class: 1 Actual Class: 1
#129: Predicted class: 1 Actual Class: 1
#130: Predicted class: 1 Actual Class: 1
#131: Predicted class: 0 Actual Class: 0
#132: Predicted class: 1 Actual Class: 1
#133: Predicted class: 1 Actual Class: 1
#134: Predicted class: 0 Actual Class: 0
#135: Predicted class: 1 Actual Class: 1
#136: Predicted class: 0 Actual Class: 0
#137: Predicted class: 1 Actual Class: 1
#138: Predicted class: 0 Actual Class: 0
#139: Predicted class: 1 Actual Class: 1
#140: Predicted class: 1 Actual Class: 1
Test Classification Accuracy for First Fold: 99.29%
Training fold #2
Training Accuracy (iter=0): 24.3292%
Training Accuracy (iter=25): 76.2075%
Training Accuracy (iter=50): 95.5277%
Training Accuracy (iter=75): 96.9589%
Training Accuracy (iter=100): 97.1377%
Training Accuracy (iter=125): 97.4955%
Training Accuracy (iter=150): 97.4955%
Training fold #3
Training Accuracy (iter=0): 90.8766%
Training Accuracy (iter=25): 96.2433%
Training Accuracy (iter=50): 96.9589%
Training Accuracy (iter=75): 96.9589%
Training fold #4
Training Accuracy (iter=0): 28.8014%
Training Accuracy (iter=25): 83.1843%
Training Accuracy (iter=50): 96.0644%
Training Accuracy (iter=75): 96.9589%
Training Accuracy (iter=100): 96.9589%
Training fold #5
Training Accuracy (iter=0): 5.1786%
Training Accuracy (iter=25): 22.1429%
Training Accuracy (iter=50): 90.7143%
Training Accuracy (iter=75): 95.1786%
Training Accuracy (iter=100): 95.8929%
Training Accuracy (iter=125): 95.7143%

Model for Breast Cancer Logistic Regression:
[[ 1.16146241  0.99373017]
 [ 0.20898585  0.62711546]
 [ 0.29762832  1.31159745]
 [ 0.0971499   1.01762326]
 [ 0.33720119  0.87233807]
 [-0.2550291   0.66036652]
 [ 0.36846689  1.15207655]
 [-0.2578744   0.75355564]
 [ 0.00528983  1.03836393]
 [ 0.61401236  0.54575546]]

Average Test Classification Accuracy for Breast Cancer Logistic Regression: 97.14%

***************************************
Breast Cancer:	Adaline
***************************************
Training fold #1
Training Accuracy (iter=0): 88.1932%
Training Accuracy (iter=25): 93.9177%
Training Accuracy (iter=50): 96.0644%
Training Accuracy (iter=75): 95.8855%
Training Accuracy (iter=100): 96.2433%
Training Accuracy (iter=125): 96.2433%
Training Accuracy (iter=150): 96.7800%
Training Accuracy (iter=175): 96.7800%

Output of test classifications for the first fold:
#1: Predicted class: 0 Actual Class: 0
#2: Predicted class: 0 Actual Class: 0
#3: Predicted class: 0 Actual Class: 0
#4: Predicted class: 0 Actual Class: 0
#5: Predicted class: 0 Actual Class: 0
#6: Predicted class: 0 Actual Class: 0
#7: Predicted class: 0 Actual Class: 0
#8: Predicted class: 0 Actual Class: 0
#9: Predicted class: 0 Actual Class: 0
#10: Predicted class: 1 Actual Class: 1
#11: Predicted class: 0 Actual Class: 0
#12: Predicted class: 1 Actual Class: 1
#13: Predicted class: 0 Actual Class: 0
#14: Predicted class: 0 Actual Class: 0
#15: Predicted class: 1 Actual Class: 1
#16: Predicted class: 1 Actual Class: 1
#17: Predicted class: 0 Actual Class: 0
#18: Predicted class: 1 Actual Class: 1
#19: Predicted class: 0 Actual Class: 0
#20: Predicted class: 1 Actual Class: 1
#21: Predicted class: 1 Actual Class: 1
#22: Predicted class: 0 Actual Class: 0
#23: Predicted class: 0 Actual Class: 0
#24: Predicted class: 1 Actual Class: 1
#25: Predicted class: 1 Actual Class: 1
#26: Predicted class: 0 Actual Class: 0
#27: Predicted class: 1 Actual Class: 1
#28: Predicted class: 0 Actual Class: 0
#29: Predicted class: 0 Actual Class: 0
#30: Predicted class: 1 Actual Class: 1
#31: Predicted class: 1 Actual Class: 1
#32: Predicted class: 0 Actual Class: 0
#33: Predicted class: 1 Actual Class: 0
#34: Predicted class: 1 Actual Class: 1
#35: Predicted class: 0 Actual Class: 0
#36: Predicted class: 0 Actual Class: 0
#37: Predicted class: 0 Actual Class: 0
#38: Predicted class: 0 Actual Class: 0
#39: Predicted class: 0 Actual Class: 0
#40: Predicted class: 0 Actual Class: 0
#41: Predicted class: 1 Actual Class: 0
#42: Predicted class: 1 Actual Class: 1
#43: Predicted class: 0 Actual Class: 0
#44: Predicted class: 0 Actual Class: 0
#45: Predicted class: 0 Actual Class: 0
#46: Predicted class: 1 Actual Class: 1
#47: Predicted class: 0 Actual Class: 0
#48: Predicted class: 0 Actual Class: 0
#49: Predicted class: 0 Actual Class: 0
#50: Predicted class: 0 Actual Class: 0
#51: Predicted class: 1 Actual Class: 1
#52: Predicted class: 0 Actual Class: 0
#53: Predicted class: 1 Actual Class: 1
#54: Predicted class: 0 Actual Class: 0
#55: Predicted class: 1 Actual Class: 1
#56: Predicted class: 0 Actual Class: 0
#57: Predicted class: 0 Actual Class: 0
#58: Predicted class: 0 Actual Class: 0
#59: Predicted class: 0 Actual Class: 0
#60: Predicted class: 0 Actual Class: 0
#61: Predicted class: 0 Actual Class: 0
#62: Predicted class: 1 Actual Class: 1
#63: Predicted class: 1 Actual Class: 0
#64: Predicted class: 1 Actual Class: 1
#65: Predicted class: 0 Actual Class: 0
#66: Predicted class: 0 Actual Class: 0
#67: Predicted class: 1 Actual Class: 1
#68: Predicted class: 0 Actual Class: 0
#69: Predicted class: 0 Actual Class: 0
#70: Predicted class: 1 Actual Class: 1
#71: Predicted class: 0 Actual Class: 0
#72: Predicted class: 0 Actual Class: 0
#73: Predicted class: 1 Actual Class: 1
#74: Predicted class: 0 Actual Class: 0
#75: Predicted class: 1 Actual Class: 1
#76: Predicted class: 0 Actual Class: 0
#77: Predicted class: 0 Actual Class: 0
#78: Predicted class: 0 Actual Class: 0
#79: Predicted class: 1 Actual Class: 1
#80: Predicted class: 1 Actual Class: 1
#81: Predicted class: 0 Actual Class: 0
#82: Predicted class: 0 Actual Class: 0
#83: Predicted class: 0 Actual Class: 0
#84: Predicted class: 1 Actual Class: 0
#85: Predicted class: 0 Actual Class: 0
#86: Predicted class: 1 Actual Class: 1
#87: Predicted class: 1 Actual Class: 1
#88: Predicted class: 1 Actual Class: 1
#89: Predicted class: 0 Actual Class: 0
#90: Predicted class: 0 Actual Class: 0
#91: Predicted class: 0 Actual Class: 0
#92: Predicted class: 0 Actual Class: 0
#93: Predicted class: 0 Actual Class: 0
#94: Predicted class: 0 Actual Class: 0
#95: Predicted class: 0 Actual Class: 0
#96: Predicted class: 0 Actual Class: 1
#97: Predicted class: 0 Actual Class: 0
#98: Predicted class: 1 Actual Class: 1
#99: Predicted class: 0 Actual Class: 0
#100: Predicted class: 0 Actual Class: 0
#101: Predicted class: 0 Actual Class: 0
#102: Predicted class: 0 Actual Class: 0
#103: Predicted class: 0 Actual Class: 0
#104: Predicted class: 0 Actual Class: 0
#105: Predicted class: 0 Actual Class: 0
#106: Predicted class: 1 Actual Class: 1
#107: Predicted class: 0 Actual Class: 0
#108: Predicted class: 1 Actual Class: 1
#109: Predicted class: 1 Actual Class: 1
#110: Predicted class: 1 Actual Class: 0
#111: Predicted class: 0 Actual Class: 0
#112: Predicted class: 0 Actual Class: 0
#113: Predicted class: 1 Actual Class: 1
#114: Predicted class: 0 Actual Class: 0
#115: Predicted class: 1 Actual Class: 1
#116: Predicted class: 1 Actual Class: 1
#117: Predicted class: 1 Actual Class: 1
#118: Predicted class: 0 Actual Class: 0
#119: Predicted class: 1 Actual Class: 1
#120: Predicted class: 1 Actual Class: 1
#121: Predicted class: 1 Actual Class: 1
#122: Predicted class: 1 Actual Class: 1
#123: Predicted class: 1 Actual Class: 1
#124: Predicted class: 1 Actual Class: 1
#125: Predicted class: 1 Actual Class: 1
#126: Predicted class: 0 Actual Class: 0
#127: Predicted class: 0 Actual Class: 0
#128: Predicted class: 0 Actual Class: 0
#129: Predicted class: 1 Actual Class: 1
#130: Predicted class: 0 Actual Class: 0
#131: Predicted class: 0 Actual Class: 0
#132: Predicted class: 0 Actual Class: 0
#133: Predicted class: 0 Actual Class: 0
#134: Predicted class: 0 Actual Class: 0
#135: Predicted class: 0 Actual Class: 0
#136: Predicted class: 0 Actual Class: 0
#137: Predicted class: 0 Actual Class: 0
#138: Predicted class: 1 Actual Class: 1
#139: Predicted class: 0 Actual Class: 0
#140: Predicted class: 0 Actual Class: 0
Test Classification Accuracy for First Fold: 95.71%
Training fold #2
Training Accuracy (iter=0): 4.8301%
Training Accuracy (iter=25): 67.6208%
Training Accuracy (iter=50): 89.9821%
Training Accuracy (iter=75): 95.1699%
Training Accuracy (iter=100): 96.6011%
Training Accuracy (iter=125): 96.7800%
Training Accuracy (iter=150): 96.7800%
Training fold #3
Training Accuracy (iter=0): 16.2791%
Training Accuracy (iter=25): 89.0877%
Training Accuracy (iter=50): 95.1699%
Training Accuracy (iter=75): 96.7800%
Training Accuracy (iter=100): 96.9589%
Training Accuracy (iter=125): 96.9589%
Training fold #4
Training Accuracy (iter=0): 84.6154%
Training Accuracy (iter=25): 90.3399%
Training Accuracy (iter=50): 92.6655%
Training Accuracy (iter=75): 93.2021%
Training Accuracy (iter=100): 94.0966%
Training Accuracy (iter=125): 94.4544%
Training Accuracy (iter=150): 94.9911%
Training Accuracy (iter=175): 95.1699%
Training Accuracy (iter=200): 95.3488%
Training Accuracy (iter=225): 95.5277%
Training Accuracy (iter=250): 95.5277%
Training Accuracy (iter=275): 95.8855%
Training Accuracy (iter=300): 95.8855%
Training Accuracy (iter=325): 96.0644%
Training Accuracy (iter=350): 96.0644%
Training fold #5
Training Accuracy (iter=0): 27.1429%
Training Accuracy (iter=25): 83.0357%
Training Accuracy (iter=50): 95.5357%
Training Accuracy (iter=75): 96.6071%
Training Accuracy (iter=100): 96.9643%
Training Accuracy (iter=125): 96.9643%

Model for Breast Cancer Adaline:
[[ 4.27244617  4.27939342]
 [-0.16388898  0.56851694]
 [-0.36390631  0.01768849]
 [-0.32513326  0.20344872]
 [-0.08861781  0.60996393]
 [-0.32897592  0.30835058]
 [-0.50276763  0.2586029 ]
 [ 0.03835528  0.03985323]
 [ 0.12421145  0.47501066]
 [ 0.10007672  0.39331727]]

Average Test Classification Accuracy for Breast Cancer Adaline: 95.99%

***************************************
House Votes:	Logistic Regression
***************************************
Training fold #1
Training Accuracy (iter=0): 12.3563%
Training Accuracy (iter=25): 46.2644%
Training Accuracy (iter=50): 72.4138%
Training Accuracy (iter=75): 80.7471%
Training Accuracy (iter=100): 82.7586%
Training Accuracy (iter=125): 83.9080%
Training Accuracy (iter=150): 85.0575%
Training Accuracy (iter=175): 86.2069%
Training Accuracy (iter=200): 86.7816%
Training Accuracy (iter=225): 87.3563%
Training Accuracy (iter=250): 87.6437%
Training Accuracy (iter=275): 88.7931%
Training Accuracy (iter=300): 89.0805%
Training Accuracy (iter=325): 89.0805%

Output of test classifications for the first fold:
#1: Predicted class: 0 Actual Class: 0
#2: Predicted class: 1 Actual Class: 1
#3: Predicted class: 1 Actual Class: 1
#4: Predicted class: 0 Actual Class: 1
#5: Predicted class: 0 Actual Class: 1
#6: Predicted class: 0 Actual Class: 1
#7: Predicted class: 0 Actual Class: 0
#8: Predicted class: 1 Actual Class: 1
#9: Predicted class: 0 Actual Class: 0
#10: Predicted class: 1 Actual Class: 1
#11: Predicted class: 1 Actual Class: 1
#12: Predicted class: 1 Actual Class: 1
#13: Predicted class: 1 Actual Class: 1
#14: Predicted class: 1 Actual Class: 1
#15: Predicted class: 0 Actual Class: 0
#16: Predicted class: 0 Actual Class: 0
#17: Predicted class: 0 Actual Class: 1
#18: Predicted class: 1 Actual Class: 1
#19: Predicted class: 0 Actual Class: 0
#20: Predicted class: 1 Actual Class: 1
#21: Predicted class: 1 Actual Class: 1
#22: Predicted class: 0 Actual Class: 0
#23: Predicted class: 1 Actual Class: 1
#24: Predicted class: 1 Actual Class: 1
#25: Predicted class: 0 Actual Class: 0
#26: Predicted class: 1 Actual Class: 1
#27: Predicted class: 1 Actual Class: 1
#28: Predicted class: 1 Actual Class: 1
#29: Predicted class: 0 Actual Class: 0
#30: Predicted class: 0 Actual Class: 0
#31: Predicted class: 1 Actual Class: 1
#32: Predicted class: 1 Actual Class: 1
#33: Predicted class: 1 Actual Class: 1
#34: Predicted class: 1 Actual Class: 1
#35: Predicted class: 1 Actual Class: 1
#36: Predicted class: 1 Actual Class: 1
#37: Predicted class: 1 Actual Class: 1
#38: Predicted class: 0 Actual Class: 0
#39: Predicted class: 0 Actual Class: 0
#40: Predicted class: 0 Actual Class: 0
#41: Predicted class: 1 Actual Class: 1
#42: Predicted class: 1 Actual Class: 1
#43: Predicted class: 0 Actual Class: 0
#44: Predicted class: 1 Actual Class: 1
#45: Predicted class: 0 Actual Class: 0
#46: Predicted class: 1 Actual Class: 1
#47: Predicted class: 1 Actual Class: 1
#48: Predicted class: 1 Actual Class: 1
#49: Predicted class: 0 Actual Class: 0
#50: Predicted class: 0 Actual Class: 0
#51: Predicted class: 1 Actual Class: 1
#52: Predicted class: 0 Actual Class: 0
#53: Predicted class: 0 Actual Class: 0
#54: Predicted class: 1 Actual Class: 1
#55: Predicted class: 1 Actual Class: 1
#56: Predicted class: 1 Actual Class: 1
#57: Predicted class: 0 Actual Class: 0
#58: Predicted class: 0 Actual Class: 1
#59: Predicted class: 1 Actual Class: 1
#60: Predicted class: 1 Actual Class: 1
#61: Predicted class: 1 Actual Class: 1
#62: Predicted class: 1 Actual Class: 1
#63: Predicted class: 0 Actual Class: 0
#64: Predicted class: 1 Actual Class: 1
#65: Predicted class: 1 Actual Class: 1
#66: Predicted class: 1 Actual Class: 1
#67: Predicted class: 0 Actual Class: 0
#68: Predicted class: 0 Actual Class: 1
#69: Predicted class: 1 Actual Class: 1
#70: Predicted class: 1 Actual Class: 1
#71: Predicted class: 0 Actual Class: 1
#72: Predicted class: 0 Actual Class: 0
#73: Predicted class: 0 Actual Class: 0
#74: Predicted class: 1 Actual Class: 1
#75: Predicted class: 1 Actual Class: 1
#76: Predicted class: 0 Actual Class: 0
#77: Predicted class: 1 Actual Class: 1
#78: Predicted class: 1 Actual Class: 1
#79: Predicted class: 0 Actual Class: 1
#80: Predicted class: 1 Actual Class: 1
#81: Predicted class: 1 Actual Class: 1
#82: Predicted class: 1 Actual Class: 1
#83: Predicted class: 1 Actual Class: 1
#84: Predicted class: 0 Actual Class: 0
#85: Predicted class: 0 Actual Class: 1
#86: Predicted class: 1 Actual Class: 1
#87: Predicted class: 0 Actual Class: 1
Test Classification Accuracy for First Fold: 88.51%
Training fold #2
Training Accuracy (iter=0): 82.7586%
Training Accuracy (iter=25): 88.7931%
Training Accuracy (iter=50): 89.6552%
Training Accuracy (iter=75): 89.9425%
Training fold #3
Training Accuracy (iter=0): 75.2874%
Training Accuracy (iter=25): 83.9080%
Training Accuracy (iter=50): 86.7816%
Training Accuracy (iter=75): 88.2184%
Training Accuracy (iter=100): 89.6552%
Training Accuracy (iter=125): 89.6552%
Training fold #4
Training Accuracy (iter=0): 64.6552%
Training Accuracy (iter=25): 77.2989%
Training Accuracy (iter=50): 83.9080%
Training Accuracy (iter=75): 87.3563%
Training Accuracy (iter=100): 89.3678%
Training Accuracy (iter=125): 90.2299%
Training Accuracy (iter=150): 90.8046%
Training Accuracy (iter=175): 90.8046%
Training fold #5
Training Accuracy (iter=0): 56.3218%
Training Accuracy (iter=25): 86.7816%
Training Accuracy (iter=50): 89.3678%
Training Accuracy (iter=75): 89.9425%
Training Accuracy (iter=100): 90.2299%
Training Accuracy (iter=125): 90.5172%
Training Accuracy (iter=150): 90.8046%
Training Accuracy (iter=175): 90.8046%

Model for House Votes Logistic Regression:
[[ 1.37058407  1.87542082]
 [ 0.27235827  0.77135513]
 [ 0.28709848  0.10761106]
 [ 0.17521635  1.40508786]
 [ 1.15668824 -0.44578358]
 [ 1.1125942  -0.38599693]
 [ 0.96302621  0.12868763]
 [ 0.34836763  0.31146111]
 [-0.01548286  0.71738821]
 [ 0.48474555  1.03720289]
 [ 0.43467632  0.3458416 ]
 [ 0.3279636   0.48186465]
 [ 0.49911983 -0.37019042]
 [ 0.65825276 -0.20770683]
 [ 0.43204125  0.02948768]
 [ 0.45262531  0.8694833 ]
 [ 0.34484885  0.35189085]]

Average Test Classification Accuracy for House Votes Logistic Regression: 88.51%

***************************************
House Votes:	Adaline
***************************************
Training fold #1
Training Accuracy (iter=0): 55.1724%
Training Accuracy (iter=25): 76.4368%
Training Accuracy (iter=50): 82.7586%
Training Accuracy (iter=75): 86.2069%
Training Accuracy (iter=100): 86.7816%
Training Accuracy (iter=125): 87.3563%
Training Accuracy (iter=150): 87.6437%
Training Accuracy (iter=175): 88.2184%
Training Accuracy (iter=200): 88.5057%
Training Accuracy (iter=225): 89.0805%
Training Accuracy (iter=250): 89.3678%
Training Accuracy (iter=275): 89.3678%

Output of test classifications for the first fold:
#1: Predicted class: 0 Actual Class: 0
#2: Predicted class: 1 Actual Class: 1
#3: Predicted class: 1 Actual Class: 1
#4: Predicted class: 0 Actual Class: 0
#5: Predicted class: 1 Actual Class: 1
#6: Predicted class: 1 Actual Class: 1
#7: Predicted class: 0 Actual Class: 0
#8: Predicted class: 1 Actual Class: 1
#9: Predicted class: 1 Actual Class: 1
#10: Predicted class: 1 Actual Class: 1
#11: Predicted class: 1 Actual Class: 1
#12: Predicted class: 1 Actual Class: 1
#13: Predicted class: 1 Actual Class: 1
#14: Predicted class: 0 Actual Class: 0
#15: Predicted class: 1 Actual Class: 1
#16: Predicted class: 1 Actual Class: 1
#17: Predicted class: 1 Actual Class: 1
#18: Predicted class: 1 Actual Class: 1
#19: Predicted class: 0 Actual Class: 0
#20: Predicted class: 1 Actual Class: 1
#21: Predicted class: 1 Actual Class: 1
#22: Predicted class: 0 Actual Class: 0
#23: Predicted class: 0 Actual Class: 0
#24: Predicted class: 0 Actual Class: 1
#25: Predicted class: 1 Actual Class: 1
#26: Predicted class: 1 Actual Class: 1
#27: Predicted class: 1 Actual Class: 1
#28: Predicted class: 0 Actual Class: 1
#29: Predicted class: 1 Actual Class: 1
#30: Predicted class: 0 Actual Class: 0
#31: Predicted class: 1 Actual Class: 0
#32: Predicted class: 1 Actual Class: 1
#33: Predicted class: 1 Actual Class: 1
#34: Predicted class: 0 Actual Class: 0
#35: Predicted class: 0 Actual Class: 0
#36: Predicted class: 0 Actual Class: 1
#37: Predicted class: 0 Actual Class: 0
#38: Predicted class: 1 Actual Class: 1
#39: Predicted class: 0 Actual Class: 0
#40: Predicted class: 1 Actual Class: 1
#41: Predicted class: 0 Actual Class: 0
#42: Predicted class: 0 Actual Class: 0
#43: Predicted class: 1 Actual Class: 1
#44: Predicted class: 1 Actual Class: 1
#45: Predicted class: 0 Actual Class: 1
#46: Predicted class: 0 Actual Class: 1
#47: Predicted class: 0 Actual Class: 0
#48: Predicted class: 0 Actual Class: 0
#49: Predicted class: 0 Actual Class: 0
#50: Predicted class: 0 Actual Class: 0
#51: Predicted class: 1 Actual Class: 1
#52: Predicted class: 0 Actual Class: 1
#53: Predicted class: 0 Actual Class: 1
#54: Predicted class: 0 Actual Class: 0
#55: Predicted class: 0 Actual Class: 0
#56: Predicted class: 1 Actual Class: 1
#57: Predicted class: 1 Actual Class: 1
#58: Predicted class: 1 Actual Class: 1
#59: Predicted class: 1 Actual Class: 1
#60: Predicted class: 0 Actual Class: 1
#61: Predicted class: 1 Actual Class: 1
#62: Predicted class: 0 Actual Class: 0
#63: Predicted class: 0 Actual Class: 0
#64: Predicted class: 1 Actual Class: 1
#65: Predicted class: 1 Actual Class: 1
#66: Predicted class: 1 Actual Class: 1
#67: Predicted class: 0 Actual Class: 0
#68: Predicted class: 1 Actual Class: 1
#69: Predicted class: 1 Actual Class: 1
#70: Predicted class: 1 Actual Class: 1
#71: Predicted class: 0 Actual Class: 0
#72: Predicted class: 1 Actual Class: 0
#73: Predicted class: 0 Actual Class: 1
#74: Predicted class: 0 Actual Class: 0
#75: Predicted class: 0 Actual Class: 0
#76: Predicted class: 0 Actual Class: 0
#77: Predicted class: 1 Actual Class: 1
#78: Predicted class: 1 Actual Class: 1
#79: Predicted class: 1 Actual Class: 1
#80: Predicted class: 0 Actual Class: 0
#81: Predicted class: 1 Actual Class: 1
#82: Predicted class: 0 Actual Class: 1
#83: Predicted class: 1 Actual Class: 1
#84: Predicted class: 1 Actual Class: 1
#85: Predicted class: 0 Actual Class: 0
#86: Predicted class: 0 Actual Class: 1
#87: Predicted class: 1 Actual Class: 1
Test Classification Accuracy for First Fold: 85.06%
Training fold #2
Training Accuracy (iter=0): 25.5747%
Training Accuracy (iter=25): 65.5172%
Training Accuracy (iter=50): 89.3678%
Training Accuracy (iter=75): 91.3793%
Training Accuracy (iter=100): 90.2299%
Training Accuracy (iter=125): 90.5172%
Training Accuracy (iter=150): 90.8046%
Training Accuracy (iter=175): 90.8046%
Training fold #3
Training Accuracy (iter=0): 25.0000%
Training Accuracy (iter=25): 59.7701%
Training Accuracy (iter=50): 85.0575%
Training Accuracy (iter=75): 87.9310%
Training Accuracy (iter=100): 88.5057%
Training Accuracy (iter=125): 88.7931%
Training Accuracy (iter=150): 89.3678%
Training Accuracy (iter=175): 89.6552%
Training Accuracy (iter=200): 90.2299%
Training Accuracy (iter=225): 89.9425%
Training fold #4
Training Accuracy (iter=0): 62.9310%
Training Accuracy (iter=25): 80.4598%
Training Accuracy (iter=50): 82.4713%
Training Accuracy (iter=75): 83.9080%
Training Accuracy (iter=100): 85.6322%
Training Accuracy (iter=125): 86.2069%
Training Accuracy (iter=150): 86.4943%
Training Accuracy (iter=175): 86.4943%
Training Accuracy (iter=200): 87.3563%
Training Accuracy (iter=225): 87.6437%
Training Accuracy (iter=250): 88.5057%
Training Accuracy (iter=275): 88.5057%
Training fold #5
Training Accuracy (iter=0): 75.8621%
Training Accuracy (iter=25): 88.7931%
Training Accuracy (iter=50): 90.2299%
Training Accuracy (iter=75): 89.9425%

Model for House Votes Adaline:
[[ 1.24695301  2.03546741]
 [ 0.04780307  0.85964367]
 [ 0.13717616  0.21158495]
 [-0.16276252  1.14811542]
 [ 0.89146574 -0.18009416]
 [ 0.42258966  0.09821396]
 [ 0.92919278  0.36892864]
 [-0.03495178  0.33949273]
 [ 0.41718211  0.685019  ]
 [ 0.4451467   0.36673296]
 [ 0.60573353  0.02224155]
 [ 0.41869688  0.33537869]
 [ 1.01926832  0.06635017]
 [ 1.00886669  0.54843148]
 [ 0.35047291  0.59276338]
 [ 0.49771743  0.88282598]
 [ 0.82819507  0.26519668]]

Average Test Classification Accuracy for House Votes Adaline: 89.20%

***************************************
Soybeans:	Logistic Regression
***************************************
Training fold #1
Training Accuracy (iter=0): 21.6216%
Training Accuracy (iter=25): 59.4595%
Training Accuracy (iter=50): 86.4865%
Training Accuracy (iter=75): 97.2973%
Training Accuracy (iter=100): 100.0000%
Training Accuracy (iter=125): 100.0000%

Output of test classifications for the first fold:
#1: Predicted class: 0 Actual Class: 0
#2: Predicted class: 1 Actual Class: 1
#3: Predicted class: 2 Actual Class: 2
#4: Predicted class: 0 Actual Class: 0
#5: Predicted class: 2 Actual Class: 2
#6: Predicted class: 0 Actual Class: 0
#7: Predicted class: 2 Actual Class: 2
#8: Predicted class: 3 Actual Class: 3
#9: Predicted class: 2 Actual Class: 2
#10: Predicted class: 0 Actual Class: 0
Test Classification Accuracy for First Fold: 100.00%
Training fold #2
Training Accuracy (iter=0): 35.1351%
Training Accuracy (iter=25): 64.8649%
Training Accuracy (iter=50): 97.2973%
Training Accuracy (iter=75): 100.0000%
Training Accuracy (iter=100): 100.0000%
Training fold #3
Training Accuracy (iter=0): 10.5263%
Training Accuracy (iter=25): 44.7368%
Training Accuracy (iter=50): 73.6842%
Training Accuracy (iter=75): 100.0000%
Training Accuracy (iter=100): 100.0000%
Training fold #4
Training Accuracy (iter=0): 26.3158%
Training Accuracy (iter=25): 73.6842%
Training Accuracy (iter=50): 84.2105%
Training Accuracy (iter=75): 97.3684%
Training Accuracy (iter=100): 100.0000%
Training Accuracy (iter=125): 100.0000%
Training fold #5
Training Accuracy (iter=0): 36.8421%
Training Accuracy (iter=25): 81.5789%
Training Accuracy (iter=50): 92.1053%
Training Accuracy (iter=75): 100.0000%
Training Accuracy (iter=100): 100.0000%

Model for Soybeans Logistic Regression:
[[ 5.82321865e-01  8.56581570e-01  8.44976825e-01  2.54348710e-01]
 [ 6.01321386e-02  3.37038206e-01  7.71991502e-01 -3.01942105e-02]
 [ 6.75444419e-01  4.45286237e-01  5.93229276e-01  7.57760525e-01]
 [ 9.38358234e-01  6.65143744e-01  4.38820909e-01  2.27779185e-01]
 [ 6.60273325e-01  2.74509553e-01  8.65325515e-01  7.59845692e-01]
 [-7.91616099e-02  8.55476267e-01  4.37748213e-01  1.03402234e+00]
 [ 3.67361508e-01  6.80920837e-01  7.53951671e-01  1.01979883e+00]
 [ 7.39343477e-01  6.43269950e-01  5.30518714e-01  9.80651480e-02]
 [ 1.99167140e-01  4.82674628e-01  4.09277252e-01  1.23103746e+00]
 [ 7.18551173e-01  4.30314759e-01  6.53434672e-01  4.43532649e-01]
 [ 6.31671671e-01  5.70563363e-01  1.50079650e-01  1.29049540e+00]
 [ 1.05913476e+00  8.25947564e-01  5.21475102e-01  8.14189975e-01]
 [ 2.93557528e-01  3.78277649e-01  4.21267786e-01  4.23202104e-01]
 [ 3.81321812e-01  5.10240012e-01  1.16756571e+00  3.09364293e-02]
 [ 5.15852359e-01  1.11112887e+00 -1.76471749e-01  5.87605741e-01]
 [ 4.22457302e-02  7.81396136e-01  7.79603063e-01  8.60849806e-01]
 [ 3.68253571e-01  9.02998619e-01  3.85399011e-01  6.11463280e-01]
 [ 1.94588380e-01  3.56681133e-03  5.82710139e-01  9.22321749e-01]
 [ 3.04992638e-01  1.20486809e-01  9.94255945e-01  1.25432160e-01]
 [ 5.35855537e-01  8.24764884e-01  9.32072337e-01  7.07764676e-01]
 [ 7.99343812e-01  9.92257292e-01  3.81012501e-01  7.40644772e-02]
 [ 3.04417811e-01  1.00373910e+00  2.18849800e-01  2.16538527e-01]
 [ 2.37404116e-01  1.36617820e+00  6.91071701e-01  4.96633016e-01]
 [ 7.50093084e-01  4.61620331e-01  3.68206216e-01  2.98883791e-01]
 [ 3.63395101e-01  4.81064998e-01  7.15647190e-01  9.41225673e-01]
 [ 8.56618998e-01  4.94835138e-01  1.66753055e-01  6.47972035e-01]
 [ 7.22418628e-02  7.37895178e-01  6.15473429e-01  4.61069836e-01]
 [ 1.21968712e+00  6.35734943e-03  9.22739552e-01  2.19275529e-01]
 [ 8.53815824e-01  8.50065211e-01  6.45176583e-01  9.91890813e-02]
 [ 8.18539918e-01  7.53229605e-01  5.81226132e-01  2.64461338e-01]
 [ 6.93952435e-01  8.30718456e-02  5.80065442e-01  6.46222483e-01]
 [-1.47956569e-03  5.54471221e-01  3.76261201e-01  5.68914711e-01]
 [ 5.96670936e-01  7.20466347e-01  1.14580940e-01  1.55073335e-01]
 [ 7.96797253e-01  8.39083069e-02  8.45958749e-01  7.32664540e-01]
 [-1.24173143e-01  3.46181138e-01  7.16678382e-01  4.74774498e-02]
 [ 6.90412395e-01  3.84583856e-01  4.28072764e-01  4.47954356e-01]
 [ 1.26136002e-01  2.67670675e-01  2.21570343e-01  7.82086868e-01]
 [ 2.11416860e-01  1.81396101e-01  5.22342173e-01  4.86441024e-01]
 [ 3.01668833e-01  1.49901953e-01  8.88385383e-01  3.46918505e-01]
 [ 5.72728997e-01  2.13229720e-01  2.73832220e-01  4.83848390e-01]
 [ 3.88747377e-01  3.76969982e-01  5.62267260e-01  7.08686122e-01]
 [ 2.55987002e-02  8.19443605e-02  3.69257187e-01  2.50686713e-01]
 [ 8.91255959e-01  8.89227550e-01  9.88903340e-01  3.63023743e-01]
 [ 9.68249356e-01  5.87898286e-01  4.71146243e-01 -4.27936466e-02]
 [ 1.80973240e-01  4.80732152e-01 -1.61555007e-03  1.76997845e-01]
 [-5.37359817e-02 -1.43514729e-01  2.29087351e-01  9.89051531e-01]
 [ 6.18819389e-01  5.84680430e-02  1.12797003e+00  5.95564775e-01]
 [ 1.11962335e+00  5.24282257e-01  1.70560514e-01  1.28294430e-02]
 [-4.58402961e-02  5.90493165e-01  1.68885549e-01 -8.28624618e-02]
 [ 4.10118201e-01  8.10706546e-01  2.15460746e-02 -1.27556233e-03]
 [ 5.17934965e-01  4.80327945e-01  1.23565800e+00 -1.40144688e-01]
 [ 8.70080584e-01  2.01672176e-01  7.38657340e-01 -1.33731313e-01]
 [-3.90363204e-02  4.69037599e-01  2.36406201e-01  5.14388557e-01]
 [ 1.00794257e+00 -2.66046807e-01  8.08561582e-01  6.33756047e-01]
 [-5.81548873e-02  8.21338698e-01  1.23297354e-01  4.06366830e-01]
 [ 9.66499230e-01  3.31260198e-01  3.14448813e-01  1.20914568e+00]
 [ 2.39923575e-01  1.15758406e+00  4.55346345e-01 -9.65653380e-02]
 [ 9.02330725e-01  2.58900086e-01  1.64217389e-01  9.23720201e-02]
 [ 1.95961992e-01  3.15735906e-01  6.69316069e-01  9.01430172e-02]
 [ 1.15983632e+00  7.21832817e-01  9.11256185e-01  5.36019749e-01]
 [ 4.19944028e-01  6.27167096e-01  4.95222516e-01  1.34319743e+00]
 [ 5.46819474e-01  1.07663576e+00  3.87036624e-01  8.72425764e-02]
 [ 1.43943876e-01  6.38038286e-01 -3.57692218e-03  1.25956357e+00]
 [ 1.96326165e-01  1.27140034e+00  2.40910697e-01  5.70353359e-01]
 [ 1.25665289e+00  2.66850987e-01  3.41884614e-01  2.94937835e-01]
 [ 2.69547978e-01  7.32066191e-01  5.58581200e-01  1.20030506e-01]
 [ 4.38381750e-01  6.92524131e-01  1.28678960e-01  5.99182168e-01]
 [ 2.40625767e-02  5.12840134e-01  6.70384569e-03  3.54763718e-01]
 [ 3.73362901e-01  4.45776691e-01  8.76481178e-01  1.59392796e-01]
 [ 5.73447885e-01  2.83997267e-01  9.07376703e-01  5.04777699e-02]
 [ 1.60778454e-01  7.30538585e-01  8.28411770e-01  6.53128885e-01]
 [ 4.69764425e-01  7.11620164e-01  4.67429080e-01  2.38964238e-01]
 [ 1.15091313e+00  3.31211541e-01  1.03090641e-01  5.79944606e-01]]

Average Test Classification Accuracy for Soybeans Logistic Regression: 97.78%

***************************************
Soybeans:	Adaline
***************************************
Training fold #1
Training Accuracy (iter=0): 10.8108%
Training Accuracy (iter=25): 56.7568%
Training Accuracy (iter=50): 78.3784%
Training Accuracy (iter=75): 91.8919%
Training Accuracy (iter=100): 91.8919%
Training Accuracy (iter=125): 100.0000%
Training Accuracy (iter=150): 100.0000%

Output of test classifications for the first fold:
#1: Predicted class: 2 Actual Class: 0
#2: Predicted class: 1 Actual Class: 1
#3: Predicted class: 2 Actual Class: 2
#4: Predicted class: 3 Actual Class: 3
#5: Predicted class: 3 Actual Class: 3
#6: Predicted class: 1 Actual Class: 1
#7: Predicted class: 0 Actual Class: 0
#8: Predicted class: 3 Actual Class: 3
#9: Predicted class: 1 Actual Class: 1
#10: Predicted class: 3 Actual Class: 2
Test Classification Accuracy for First Fold: 80.00%
Training fold #2
Training Accuracy (iter=0): 8.1081%
Training Accuracy (iter=25): 45.9459%
Training Accuracy (iter=50): 75.6757%
Training Accuracy (iter=75): 100.0000%
Training Accuracy (iter=100): 100.0000%
Training fold #3
Training Accuracy (iter=0): 44.7368%
Training Accuracy (iter=25): 63.1579%
Training Accuracy (iter=50): 86.8421%
Training Accuracy (iter=75): 94.7368%
Training Accuracy (iter=100): 100.0000%
Training Accuracy (iter=125): 100.0000%
Training fold #4
Training Accuracy (iter=0): 28.9474%
Training Accuracy (iter=25): 65.7895%
Training Accuracy (iter=50): 86.8421%
Training Accuracy (iter=75): 97.3684%
Training Accuracy (iter=100): 100.0000%
Training Accuracy (iter=125): 100.0000%
Training fold #5
Training Accuracy (iter=0): 15.7895%
Training Accuracy (iter=25): 65.7895%
Training Accuracy (iter=50): 84.2105%
Training Accuracy (iter=75): 100.0000%
Training Accuracy (iter=100): 100.0000%

Model for Soybeans Adaline:
[[ 2.09527839e+00  1.75611972e+00  2.21886255e+00  2.23505861e+00]
 [ 6.76145507e-01  6.95401631e-01  3.60639382e-01  6.10131163e-01]
 [ 1.89631837e-01  9.56911617e-01  8.55593805e-01  3.19245815e-01]
 [ 2.27382880e-01  4.80339769e-01  5.21271045e-01  7.73900818e-01]
 [ 2.70859407e-01  5.65632471e-01  6.17361153e-01  7.01554131e-01]
 [ 5.62895119e-01  1.97226574e-01  4.61096835e-01  7.07520558e-01]
 [ 8.25717992e-01  2.58155369e-01  7.24717481e-01  9.29172154e-01]
 [ 6.25301747e-01  2.68392249e-01  3.46409278e-01  7.30510019e-01]
 [ 3.58718842e-01 -1.85739084e-02  8.56561328e-01  5.29056887e-01]
 [ 4.63340072e-01  2.92204154e-01  8.56943497e-02  2.40886637e-01]
 [ 5.13763521e-01  7.18213755e-01  3.32642526e-01  2.67197026e-01]
 [ 1.17475199e-01  5.91137745e-01  4.93273814e-01  1.30111710e-01]
 [ 4.73822149e-01  4.36341888e-01  2.77057142e-01  6.51253413e-01]
 [ 5.33297374e-01  3.78997444e-01  1.10822400e+00  2.08868463e-01]
 [-1.08017928e-01 -1.15165412e-01  2.78820739e-01  6.00355718e-01]
 [ 6.46025271e-01  4.72742719e-01  4.03707361e-01  7.05412069e-01]
 [ 4.25529352e-01  6.95581534e-01  4.00746660e-01  4.68446410e-01]
 [ 2.86286887e-01  4.28296120e-01 -6.21807877e-03  6.93740298e-02]
 [ 5.08539662e-01  3.42739446e-01  2.85773889e-01  8.70321639e-01]
 [ 3.22518354e-01  3.38006182e-01  4.73692582e-01  6.94624233e-01]
 [ 1.03688081e+00  4.73901810e-01  9.14062655e-01  4.09596963e-01]
 [ 4.70857703e-01  7.08704331e-01  9.62611095e-01  8.69398994e-01]
 [ 2.94580922e-02  7.71423154e-01  4.40850407e-01  9.18815443e-01]
 [ 6.04403851e-01  4.83911314e-01  2.73398121e-02  1.75151421e-01]
 [-4.88773758e-02  3.03304008e-01  5.57853863e-01  1.32258841e-01]
 [ 5.60382082e-01  1.03740688e+00  7.40225424e-01  8.32641180e-02]
 [ 2.54899881e-01  1.63625634e-01  3.53984701e-01  7.64408900e-01]
 [ 9.04896021e-01  7.21468731e-01  5.32024849e-01  9.50079127e-01]
 [ 3.53211315e-01  7.18598290e-01  9.09413751e-01  2.66742743e-01]
 [ 2.88682916e-01  3.34948785e-01  1.00744232e+00  6.08094382e-01]
 [ 3.26898249e-02  5.17458094e-01  3.13375455e-01  5.80468246e-01]
 [ 5.24040287e-01  1.00469981e+00  9.80234239e-01  8.66117498e-01]
 [ 7.46430123e-01  2.84782191e-01  6.63600221e-01  1.17169321e-01]
 [ 3.58108429e-01  5.39617097e-01  9.31792787e-01  7.81715666e-01]
 [ 6.42377361e-01  7.25907985e-01  4.28778512e-01  8.18241838e-01]
 [ 2.79813723e-01  9.57062695e-01  6.95656928e-01  5.98702920e-02]
 [ 2.32809949e-02  6.76839283e-01  1.26354360e-01  7.59747480e-01]
 [ 2.31361075e-01  2.57437094e-02  5.10945276e-02  4.21771623e-01]
 [ 8.73416257e-01  9.92005427e-01  7.52158791e-01  8.64732025e-02]
 [ 9.91470413e-01  7.27638097e-02  1.92487738e-01  7.94661042e-01]
 [ 2.19112974e-01  4.44368276e-01  4.32872442e-01  2.35874203e-01]
 [ 6.92512822e-01  1.83096954e-01  5.22821014e-01  7.87584674e-01]
 [ 4.49923580e-01  9.18106341e-01  5.81848443e-01  1.30497132e-01]
 [ 8.27282756e-01  7.40360848e-01  5.20078578e-01  5.64551010e-01]
 [ 7.36131650e-01  6.21575683e-01  6.63308341e-01  6.09305287e-01]
 [ 5.44669953e-01  3.62983119e-01  6.15732840e-01  2.35737311e-01]
 [ 3.02312763e-01  2.97718855e-01  3.86054235e-01  1.28795881e-01]
 [ 1.52107756e-01  1.21141070e+00  6.55606080e-01  6.78511290e-01]
 [ 7.11084374e-01  3.44731722e-01  2.38995482e-01  1.11924873e+00]
 [ 2.37215805e-01  6.83947161e-01  2.19118725e-01  3.94403630e-01]
 [ 7.64009385e-01  3.22135154e-01  7.72293379e-01  2.99276391e-01]
 [-1.71585486e-01  4.73155165e-01 -1.38852874e-02  4.88891525e-01]
 [ 4.71037703e-01  1.87794830e-01  3.07195287e-01  3.97428890e-01]
 [ 1.01737039e+00  2.18180591e-01  4.68549670e-01  3.84882085e-01]
 [ 2.43642712e-01  5.65994513e-01  1.52536636e-01  5.02041670e-01]
 [ 5.10416622e-01  4.76355202e-01 -3.52009967e-02  4.52633073e-01]
 [ 9.18878854e-01  5.31516498e-01  9.61491486e-02  8.52802673e-01]
 [ 4.50067139e-01  6.19196233e-01  5.23237390e-01  4.90512590e-01]
 [ 1.05786894e+00  8.26539308e-01  2.31117759e-01  9.20892751e-01]
 [ 1.00986567e+00  6.63019013e-01  1.57171812e-01  6.22404305e-01]
 [ 5.45879252e-01  5.41930029e-01  8.32053835e-01  6.28939594e-01]
 [ 7.56770668e-01  5.86972927e-01  3.09934885e-02  8.38030754e-01]
 [-6.07351276e-02  1.28170118e-01  8.17703221e-01  6.17376555e-01]
 [ 4.71243246e-01  5.79507511e-01  7.21086378e-01  1.07486898e+00]
 [ 5.13460960e-01  7.55242991e-01  4.07723574e-01  3.13557974e-01]
 [ 7.23780989e-01  6.10552597e-01  8.28070519e-01  7.37142929e-01]
 [ 8.30616305e-01  9.42766472e-02  5.73571852e-01  1.78038516e-01]
 [ 3.69076071e-01  6.68123468e-01  3.19339653e-02  3.44944091e-04]
 [ 9.61030620e-01  4.46163812e-01  5.02516502e-02  5.28620685e-02]
 [ 9.52357328e-01  9.73272349e-01  3.45932557e-01  1.80976972e-01]
 [ 4.31801781e-01  3.10729840e-02  5.64200048e-01  2.75501115e-01]
 [ 6.34542807e-01  1.98041352e-01  6.86785599e-01  8.92473293e-01]
 [ 2.21058056e-01  2.64745249e-01  6.36808971e-01  5.74254571e-01]]

Average Test Classification Accuracy for Soybeans Adaline: 93.78%
***************************************
Glass:	Logistic Regression
***************************************
Training fold #1
Training Accuracy (iter=0): 19.8830%
Training Accuracy (iter=25): 41.5205%
Training Accuracy (iter=50): 54.9708%
Training Accuracy (iter=75): 54.3860%
Training Accuracy (iter=100): 54.3860%

Output of test classifications for the first fold:
#1: Predicted class: 0 Actual Class: 0
#2: Predicted class: 1 Actual Class: 1
#3: Predicted class: 0 Actual Class: 0
#4: Predicted class: 3 Actual Class: 0
#5: Predicted class: 0 Actual Class: 0
#6: Predicted class: 0 Actual Class: 2
#7: Predicted class: 0 Actual Class: 3
#8: Predicted class: 0 Actual Class: 0
#9: Predicted class: 1 Actual Class: 1
#10: Predicted class: 0 Actual Class: 0
#11: Predicted class: 0 Actual Class: 3
#12: Predicted class: 0 Actual Class: 3
#13: Predicted class: 0 Actual Class: 0
#14: Predicted class: 3 Actual Class: 3
#15: Predicted class: 0 Actual Class: 3
#16: Predicted class: 1 Actual Class: 4
#17: Predicted class: 0 Actual Class: 3
#18: Predicted class: 0 Actual Class: 3
#19: Predicted class: 3 Actual Class: 3
#20: Predicted class: 0 Actual Class: 0
#21: Predicted class: 1 Actual Class: 1
#22: Predicted class: 0 Actual Class: 0
#23: Predicted class: 0 Actual Class: 2
#24: Predicted class: 4 Actual Class: 3
#25: Predicted class: 0 Actual Class: 3
#26: Predicted class: 0 Actual Class: 0
#27: Predicted class: 0 Actual Class: 3
#28: Predicted class: 0 Actual Class: 3
#29: Predicted class: 1 Actual Class: 1
#30: Predicted class: 0 Actual Class: 0
#31: Predicted class: 0 Actual Class: 0
#32: Predicted class: 0 Actual Class: 0
#33: Predicted class: 3 Actual Class: 3
#34: Predicted class: 3 Actual Class: 3
#35: Predicted class: 0 Actual Class: 0
#36: Predicted class: 1 Actual Class: 1
#37: Predicted class: 1 Actual Class: 1
#38: Predicted class: 3 Actual Class: 3
#39: Predicted class: 3 Actual Class: 3
#40: Predicted class: 4 Actual Class: 4
#41: Predicted class: 1 Actual Class: 3
#42: Predicted class: 4 Actual Class: 4
#43: Predicted class: 0 Actual Class: 3
Test Classification Accuracy for First Fold: 62.79%
Training fold #2
Training Accuracy (iter=0): 8.7719%
Training Accuracy (iter=25): 24.5614%
Training Accuracy (iter=50): 40.3509%
Training Accuracy (iter=75): 54.9708%
Training Accuracy (iter=100): 56.1404%
Training fold #3
Training Accuracy (iter=0): 26.3158%
Training Accuracy (iter=25): 29.8246%
Training Accuracy (iter=50): 38.0117%
Training Accuracy (iter=75): 44.4444%
Training Accuracy (iter=100): 49.1228%
Training Accuracy (iter=125): 54.9708%
Training Accuracy (iter=150): 55.5556%
Training Accuracy (iter=175): 57.8947%
Training Accuracy (iter=200): 60.2339%
Training Accuracy (iter=225): 61.4035%
Training Accuracy (iter=250): 63.1579%
Training Accuracy (iter=275): 64.3275%
Training Accuracy (iter=300): 63.7427%
Training fold #4
Training Accuracy (iter=0): 7.6023%
Training Accuracy (iter=25): 17.5439%
Training Accuracy (iter=50): 33.9181%
Training Accuracy (iter=75): 50.8772%
Training Accuracy (iter=100): 52.6316%
Training Accuracy (iter=125): 54.3860%
Training Accuracy (iter=150): 54.3860%
Training fold #5
Training Accuracy (iter=0): 17.4419%
Training Accuracy (iter=25): 53.4884%
Training Accuracy (iter=50): 62.7907%
Training Accuracy (iter=75): 63.9535%
Training Accuracy (iter=100): 63.3721%

Model for Glass Logistic Regression:
[[ 1.91397166  0.82078503  1.37388317  2.29632338  1.17207464  0.91973506]
 [ 0.8722386   0.40117427  0.76267012  0.1455278   1.06249861  0.51443805]
 [ 0.22370086  1.87944462  0.94253422  0.31160627  0.67387949  0.90953012]
 [ 1.92725243 -0.87457652  0.30941441  1.2611556   0.39485787  0.12700394]
 [-0.79704661  1.62972749 -0.05434529  0.40205417  1.20866763  0.52054717]
 [ 0.51912781  0.79154348 -0.0415269   0.36312402  0.60755344  0.97810981]
 [ 0.80789438  0.47349867  0.4151455   0.43774627  1.10999617  0.25705468]
 [ 0.72944236  0.76247684  0.5802034   0.63919445  1.15575194  0.59563868]
 [ 0.00249187  1.93241505  0.6988061  -0.29682693  1.00203675  0.24259299]
 [ 0.60926848  0.55005514  0.58613722  0.92264983  0.14955194  0.21137773]]

Average Test Classification Accuracy for Glass Logistic Regression: 52.85%
***************************************
Glass:	Adaline
***************************************
Training fold #1
Training Accuracy (iter=0): 21.6374%
Training Accuracy (iter=25): 45.6140%
Training Accuracy (iter=50): 54.3860%
Training Accuracy (iter=75): 54.3860%
Training Accuracy (iter=100): 58.4795%
Training Accuracy (iter=125): 58.4795%

Output of test classifications for the first fold:
#1: Predicted class: 0 Actual Class: 0
#2: Predicted class: 0 Actual Class: 0
#3: Predicted class: 1 Actual Class: 1
#4: Predicted class: 2 Actual Class: 2
#5: Predicted class: 0 Actual Class: 1
#6: Predicted class: 0 Actual Class: 0
#7: Predicted class: 0 Actual Class: 1
#8: Predicted class: 1 Actual Class: 1
#9: Predicted class: 0 Actual Class: 3
#10: Predicted class: 1 Actual Class: 0
#11: Predicted class: 0 Actual Class: 0
#12: Predicted class: 0 Actual Class: 0
#13: Predicted class: 0 Actual Class: 0
#14: Predicted class: 1 Actual Class: 0
#15: Predicted class: 1 Actual Class: 0
#16: Predicted class: 2 Actual Class: 2
#17: Predicted class: 0 Actual Class: 0
#18: Predicted class: 0 Actual Class: 3
#19: Predicted class: 2 Actual Class: 2
#20: Predicted class: 0 Actual Class: 1
#21: Predicted class: 0 Actual Class: 3
#22: Predicted class: 4 Actual Class: 4
#23: Predicted class: 0 Actual Class: 0
#24: Predicted class: 0 Actual Class: 1
#25: Predicted class: 1 Actual Class: 1
#26: Predicted class: 1 Actual Class: 0
#27: Predicted class: 0 Actual Class: 3
#28: Predicted class: 0 Actual Class: 3
#29: Predicted class: 0 Actual Class: 1
#30: Predicted class: 0 Actual Class: 0
#31: Predicted class: 1 Actual Class: 5
#32: Predicted class: 0 Actual Class: 0
#33: Predicted class: 0 Actual Class: 0
#34: Predicted class: 0 Actual Class: 1
#35: Predicted class: 2 Actual Class: 2
#36: Predicted class: 1 Actual Class: 0
#37: Predicted class: 2 Actual Class: 2
#38: Predicted class: 5 Actual Class: 5
#39: Predicted class: 1 Actual Class: 0
#40: Predicted class: 2 Actual Class: 5
#41: Predicted class: 1 Actual Class: 1
#42: Predicted class: 0 Actual Class: 1
#43: Predicted class: 1 Actual Class: 0
Test Classification Accuracy for First Fold: 51.16%
Training fold #2
Training Accuracy (iter=0): 8.7719%
Training Accuracy (iter=25): 22.8070%
Training Accuracy (iter=50): 42.1053%
Training Accuracy (iter=75): 49.1228%
Training Accuracy (iter=100): 50.8772%
Training Accuracy (iter=125): 55.5556%
Training Accuracy (iter=150): 56.1404%
Training fold #3
Training Accuracy (iter=0): 23.3918%
Training Accuracy (iter=25): 45.6140%
Training Accuracy (iter=50): 54.9708%
Training Accuracy (iter=75): 57.3099%
Training Accuracy (iter=100): 57.8947%
Training Accuracy (iter=125): 59.6491%
Training Accuracy (iter=150): 60.8187%
Training fold #4
Training Accuracy (iter=0): 11.6959%
Training Accuracy (iter=25): 51.4620%
Training Accuracy (iter=50): 54.3860%
Training Accuracy (iter=75): 57.3099%
Training Accuracy (iter=100): 55.5556%
Training fold #5
Training Accuracy (iter=0): 19.1860%
Training Accuracy (iter=25): 47.0930%
Training Accuracy (iter=50): 58.7209%
Training Accuracy (iter=75): 55.2326%
Training Accuracy (iter=100): 54.6512%
Training Accuracy (iter=125): 53.4884%
Training Accuracy (iter=150): 54.0698%

Model for Glass Adaline:
[[ 1.27049052e+01  1.26880948e+01  1.19975151e+01  1.16996876e+01
   1.16367918e+01  1.16117737e+01]
 [ 3.97182429e-01  4.44840312e-01  3.53822196e-01  3.48647063e-01
   2.79821700e-01  5.97545398e-01]
 [ 3.31472897e-01  2.25264408e-03  9.57596182e-01  3.96984537e-01
   5.57265986e-01  4.50369005e-01]
 [ 1.06026839e+00  7.75079261e-01  7.57261532e-01  6.06054558e-01
   6.15866781e-01  2.56401689e-01]
 [-3.73969521e-01  2.73347913e-01  6.49347354e-01  1.25649911e-01
   2.61482214e-01  2.50821005e-01]
 [ 4.71417134e-01  4.12930030e-01  9.58308175e-01  2.87940414e-01
   6.04863977e-01  6.85634452e-01]
 [ 4.89813326e-01  4.95847197e-01  6.62970667e-01  3.44569258e-01
   4.33700827e-01  1.01468359e+00]
 [ 2.68252994e-01  3.52822735e-01  7.46864306e-01  2.46118682e-01
   6.59361953e-01  5.83069309e-01]
 [ 2.78506253e-01  1.22321941e-01  1.14566672e+00  1.23704485e-01
   2.02929289e-01  4.73711486e-02]
 [-5.46348313e-02  6.41287030e-02 -2.27333646e-01 -1.58083926e-01
  -2.48940721e-01 -9.98992463e-02]]

Average Test Classification Accuracy for Glass Adaline: 54.25%

Process finished with exit code 0
